%YAML 1.1
%TAG !u! tag:unity3d.com,2011:
--- !u!1045 &1
EditorBuildSettings:
  m_ObjectHideFlags: 0
  serializedVersion: 2
  m_Scenes:
  - enabled: 1
    path: Assets/Scenes/MainMenu.unity
    guid: 1d99dc2101b6dc14f8bc770896a138f7
  - enabled: 1
    path: Assets/Scenes/Game.unity
    guid: 2cda990e2423bbf4892e6590ba056729
  - enabled: 1
    path: Assets/Scenes/Scores.unity
    guid: 7af10d7d69b3ffc468de7e10d179cd6b
  - enabled: 1
    path: Assets/Scenes/Settings.unity
    guid: f0ace218610ba35479ddc27b2a1863bd
  m_configObjects: {}
